cycle              1000006:bit_error_cnt[          0]=                7624
cycle              1000006:bit_error_cnt[          1]=                3078
cycle              1000006:bit_error_cnt[          2]=                3032
cycle              1000006:bit_error_cnt[          3]=                3151
cycle              1000006:bit_error_cnt[          4]=                3130
cycle              1000006:bit_error_cnt[          5]=                3225
cycle              1000006:bit_error_cnt[          6]=                3116
cycle              1000006:bit_error_cnt[          7]=                3170
cycle              1000006:bit_error_cnt[          8]=                3180
cycle              1000006:bit_error_cnt[          9]=                3104
cycle              1000006:bit_error_cnt[         10]=                3211
cycle              1000006:bit_error_cnt[         11]=                3198
cycle              1000006:bit_error_cnt[         12]=                3191
cycle              1000006:bit_error_cnt[         13]=                3104
cycle              1000006:bit_error_cnt[         14]=                3121
cycle              1000006:bit_error_cnt[         15]=                3090
cycle              1000006:bit_error_cnt[         16]=                3117
cycle              1000006:bit_error_cnt[         17]=                3099
cycle              1000006:bit_error_cnt[         18]=                3124
cycle              1000006:bit_error_cnt[         19]=                3079
cycle              1000006:bit_error_cnt[         20]=                3127
cycle              1000006:bit_error_cnt[         21]=                3155
cycle              1000006:bit_error_cnt[         22]=                3019
cycle              1000006:bit_error_cnt[         23]=                2737
cycle              1000006:bit_error_cnt[         24]=                2912
cycle              1000006:bit_error_cnt[         25]=                2246
cycle              1000006:bit_error_cnt[         26]=                2202
cycle              1000006:bit_error_cnt[         27]=                2163
cycle              1000006:bit_error_cnt[         28]=                2135
cycle              1000006:bit_error_cnt[         29]=                3057
cycle              1000006:bit_error_cnt[         30]=                6876
cycle              1000006:bit_error_cnt[         31]=                3780
