cycle              1000006:bit_error_cnt[          0]=               12292
cycle              1000006:bit_error_cnt[          1]=                9751
cycle              1000006:bit_error_cnt[          2]=                9617
cycle              1000006:bit_error_cnt[          3]=                9280
cycle              1000006:bit_error_cnt[          4]=                8895
cycle              1000006:bit_error_cnt[          5]=                8677
cycle              1000006:bit_error_cnt[          6]=                8349
cycle              1000006:bit_error_cnt[          7]=                8305
cycle              1000006:bit_error_cnt[          8]=                8171
cycle              1000006:bit_error_cnt[          9]=                8144
cycle              1000006:bit_error_cnt[         10]=                8141
cycle              1000006:bit_error_cnt[         11]=                8174
cycle              1000006:bit_error_cnt[         12]=                8076
cycle              1000006:bit_error_cnt[         13]=                8128
cycle              1000006:bit_error_cnt[         14]=                8064
cycle              1000006:bit_error_cnt[         15]=                8076
cycle              1000006:bit_error_cnt[         16]=                8000
cycle              1000006:bit_error_cnt[         17]=                7964
cycle              1000006:bit_error_cnt[         18]=                8053
cycle              1000006:bit_error_cnt[         19]=                8082
cycle              1000006:bit_error_cnt[         20]=                8045
cycle              1000006:bit_error_cnt[         21]=                7929
cycle              1000006:bit_error_cnt[         22]=                7816
cycle              1000006:bit_error_cnt[         23]=               12929
cycle              1000006:bit_error_cnt[         24]=               13018
cycle              1000006:bit_error_cnt[         25]=               13010
cycle              1000006:bit_error_cnt[         26]=               10407
cycle              1000006:bit_error_cnt[         27]=               10868
cycle              1000006:bit_error_cnt[         28]=                7621
cycle              1000006:bit_error_cnt[         29]=                9871
cycle              1000006:bit_error_cnt[         30]=                9590
cycle              1000006:bit_error_cnt[         31]=                2110
