cycle              1000006:bit_error_cnt[          0]=              637267
cycle              1000006:bit_error_cnt[          1]=              659951
cycle              1000006:bit_error_cnt[          2]=              641778
cycle              1000006:bit_error_cnt[          3]=              622365
cycle              1000006:bit_error_cnt[          4]=              602280
cycle              1000006:bit_error_cnt[          5]=              595992
cycle              1000006:bit_error_cnt[          6]=              566330
cycle              1000006:bit_error_cnt[          7]=              528108
cycle              1000006:bit_error_cnt[          8]=              510367
cycle              1000006:bit_error_cnt[          9]=              500443
cycle              1000006:bit_error_cnt[         10]=              460206
cycle              1000006:bit_error_cnt[         11]=              441571
cycle              1000006:bit_error_cnt[         12]=              451844
cycle              1000006:bit_error_cnt[         13]=              463496
cycle              1000006:bit_error_cnt[         14]=              436154
cycle              1000006:bit_error_cnt[         15]=              409033
cycle              1000006:bit_error_cnt[         16]=              388294
cycle              1000006:bit_error_cnt[         17]=              371831
cycle              1000006:bit_error_cnt[         18]=              362022
cycle              1000006:bit_error_cnt[         19]=              349889
cycle              1000006:bit_error_cnt[         20]=              344764
cycle              1000006:bit_error_cnt[         21]=              345664
cycle              1000006:bit_error_cnt[         22]=              307773
cycle              1000006:bit_error_cnt[         23]=              389698
cycle              1000006:bit_error_cnt[         24]=              275380
cycle              1000006:bit_error_cnt[         25]=              219737
cycle              1000006:bit_error_cnt[         26]=              139314
cycle              1000006:bit_error_cnt[         27]=              191368
cycle              1000006:bit_error_cnt[         28]=              100200
cycle              1000006:bit_error_cnt[         29]=              119043
cycle              1000006:bit_error_cnt[         30]=               56564
cycle              1000006:bit_error_cnt[         31]=               74208
