cycle                 1006:bit_error_cnt[          0]=                 638
cycle                 1006:bit_error_cnt[          1]=                 634
cycle                 1006:bit_error_cnt[          2]=                 616
cycle                 1006:bit_error_cnt[          3]=                 613
cycle                 1006:bit_error_cnt[          4]=                 597
cycle                 1006:bit_error_cnt[          5]=                 579
cycle                 1006:bit_error_cnt[          6]=                 544
cycle                 1006:bit_error_cnt[          7]=                 506
cycle                 1006:bit_error_cnt[          8]=                 466
cycle                 1006:bit_error_cnt[          9]=                 455
cycle                 1006:bit_error_cnt[         10]=                 424
cycle                 1006:bit_error_cnt[         11]=                 415
cycle                 1006:bit_error_cnt[         12]=                 434
cycle                 1006:bit_error_cnt[         13]=                 418
cycle                 1006:bit_error_cnt[         14]=                 429
cycle                 1006:bit_error_cnt[         15]=                 421
cycle                 1006:bit_error_cnt[         16]=                 386
cycle                 1006:bit_error_cnt[         17]=                 361
cycle                 1006:bit_error_cnt[         18]=                 352
cycle                 1006:bit_error_cnt[         19]=                 340
cycle                 1006:bit_error_cnt[         20]=                 315
cycle                 1006:bit_error_cnt[         21]=                 299
cycle                 1006:bit_error_cnt[         22]=                 284
cycle                 1006:bit_error_cnt[         23]=                 358
cycle                 1006:bit_error_cnt[         24]=                 270
cycle                 1006:bit_error_cnt[         25]=                 218
cycle                 1006:bit_error_cnt[         26]=                 157
cycle                 1006:bit_error_cnt[         27]=                 182
cycle                 1006:bit_error_cnt[         28]=                  94
cycle                 1006:bit_error_cnt[         29]=                 108
cycle                 1006:bit_error_cnt[         30]=                  49
cycle                 1006:bit_error_cnt[         31]=                  38
