cycle                 1006:bit_error_cnt[          0]=                1001
cycle                 1006:bit_error_cnt[          1]=                 833
cycle                 1006:bit_error_cnt[          2]=                 838
cycle                 1006:bit_error_cnt[          3]=                 815
cycle                 1006:bit_error_cnt[          4]=                 827
cycle                 1006:bit_error_cnt[          5]=                 812
cycle                 1006:bit_error_cnt[          6]=                 830
cycle                 1006:bit_error_cnt[          7]=                 788
cycle                 1006:bit_error_cnt[          8]=                 814
cycle                 1006:bit_error_cnt[          9]=                 811
cycle                 1006:bit_error_cnt[         10]=                 812
cycle                 1006:bit_error_cnt[         11]=                 813
cycle                 1006:bit_error_cnt[         12]=                 810
cycle                 1006:bit_error_cnt[         13]=                 791
cycle                 1006:bit_error_cnt[         14]=                 770
cycle                 1006:bit_error_cnt[         15]=                 811
cycle                 1006:bit_error_cnt[         16]=                 772
cycle                 1006:bit_error_cnt[         17]=                 801
cycle                 1006:bit_error_cnt[         18]=                 804
cycle                 1006:bit_error_cnt[         19]=                 815
cycle                 1006:bit_error_cnt[         20]=                 767
cycle                 1006:bit_error_cnt[         21]=                 764
cycle                 1006:bit_error_cnt[         22]=                 728
cycle                 1006:bit_error_cnt[         23]=                 813
cycle                 1006:bit_error_cnt[         24]=                 787
cycle                 1006:bit_error_cnt[         25]=                 786
cycle                 1006:bit_error_cnt[         26]=                 713
cycle                 1006:bit_error_cnt[         27]=                 727
cycle                 1006:bit_error_cnt[         28]=                 706
cycle                 1006:bit_error_cnt[         29]=                 714
cycle                 1006:bit_error_cnt[         30]=                 670
cycle                 1006:bit_error_cnt[         31]=                 724
