cycle                 1006:bit_error_cnt[          0]=                1006
cycle                 1006:bit_error_cnt[          1]=                 616
cycle                 1006:bit_error_cnt[          2]=                 601
cycle                 1006:bit_error_cnt[          3]=                 619
cycle                 1006:bit_error_cnt[          4]=                 631
cycle                 1006:bit_error_cnt[          5]=                 630
cycle                 1006:bit_error_cnt[          6]=                 662
cycle                 1006:bit_error_cnt[          7]=                 594
cycle                 1006:bit_error_cnt[          8]=                 591
cycle                 1006:bit_error_cnt[          9]=                 609
cycle                 1006:bit_error_cnt[         10]=                 614
cycle                 1006:bit_error_cnt[         11]=                 623
cycle                 1006:bit_error_cnt[         12]=                 608
cycle                 1006:bit_error_cnt[         13]=                 589
cycle                 1006:bit_error_cnt[         14]=                 574
cycle                 1006:bit_error_cnt[         15]=                 602
cycle                 1006:bit_error_cnt[         16]=                 593
cycle                 1006:bit_error_cnt[         17]=                 611
cycle                 1006:bit_error_cnt[         18]=                 615
cycle                 1006:bit_error_cnt[         19]=                 604
cycle                 1006:bit_error_cnt[         20]=                 542
cycle                 1006:bit_error_cnt[         21]=                 602
cycle                 1006:bit_error_cnt[         22]=                 514
cycle                 1006:bit_error_cnt[         23]=                 639
cycle                 1006:bit_error_cnt[         24]=                 659
cycle                 1006:bit_error_cnt[         25]=                 632
cycle                 1006:bit_error_cnt[         26]=                 637
cycle                 1006:bit_error_cnt[         27]=                 609
cycle                 1006:bit_error_cnt[         28]=                 604
cycle                 1006:bit_error_cnt[         29]=                 607
cycle                 1006:bit_error_cnt[         30]=                 626
cycle                 1006:bit_error_cnt[         31]=                 663
