cycle              1000006:bit_error_cnt[          0]=                7625
cycle              1000006:bit_error_cnt[          1]=                3078
cycle              1000006:bit_error_cnt[          2]=                3031
cycle              1000006:bit_error_cnt[          3]=                3150
cycle              1000006:bit_error_cnt[          4]=                3129
cycle              1000006:bit_error_cnt[          5]=                3224
cycle              1000006:bit_error_cnt[          6]=                3116
cycle              1000006:bit_error_cnt[          7]=                3170
cycle              1000006:bit_error_cnt[          8]=                3179
cycle              1000006:bit_error_cnt[          9]=                3103
cycle              1000006:bit_error_cnt[         10]=                3210
cycle              1000006:bit_error_cnt[         11]=                3198
cycle              1000006:bit_error_cnt[         12]=                3190
cycle              1000006:bit_error_cnt[         13]=                3103
cycle              1000006:bit_error_cnt[         14]=                3121
cycle              1000006:bit_error_cnt[         15]=                3089
cycle              1000006:bit_error_cnt[         16]=                3116
cycle              1000006:bit_error_cnt[         17]=                3099
cycle              1000006:bit_error_cnt[         18]=                3123
cycle              1000006:bit_error_cnt[         19]=                3078
cycle              1000006:bit_error_cnt[         20]=                3126
cycle              1000006:bit_error_cnt[         21]=                3154
cycle              1000006:bit_error_cnt[         22]=                3018
cycle              1000006:bit_error_cnt[         23]=                2736
cycle              1000006:bit_error_cnt[         24]=                2912
cycle              1000006:bit_error_cnt[         25]=                2245
cycle              1000006:bit_error_cnt[         26]=                2202
cycle              1000006:bit_error_cnt[         27]=                2163
cycle              1000006:bit_error_cnt[         28]=                2135
cycle              1000006:bit_error_cnt[         29]=                3057
cycle              1000006:bit_error_cnt[         30]=                6876
cycle              1000006:bit_error_cnt[         31]=                3781
